{
    "pack": {
        "description": "More Gamerules resources",
        "pack_format": 6,
        "_comment": "A pack_format of 5 requires json lang files and some texture changes from 1.15. Note: we require v5 pack meta for all mods."
    }
}
